{
"skeleton": {
	"hash": "MEj2a3+kMr75iY4KMlu7ELmBAlY",
	"spine": "3.8.95",
	"x": -27.45,
	"y": -11.19,
	"width": 54.9,
	"height": 54.7,
	"images": "./images/",
	"audio": "C:/Mountain Walrus/freelancing/GTA Pandemic"
},
"bones": [
	{ "name": "root" },
	{ "name": "body", "parent": "root" },
	{ "name": "head", "parent": "body", "y": 12.65, "transform": "noScale" },
	{ "name": "apparel", "parent": "head", "length": 45, "rotation": -90, "y": 36.47, "transform": "noScale" }
],
"slots": [
	{ "name": "apparel-back", "bone": "apparel", "attachment": "apparel-back" },
	{ "name": "body", "bone": "body", "attachment": "body" },
	{ "name": "head", "bone": "head", "attachment": "head" },
	{ "name": "apparel-front", "bone": "apparel", "attachment": "apparel-front" }
],
"skins": [
	{
		"name": "p01",
		"attachments": {
			"body": {
				"body": { "y": 3.5, "rotation": 0.52, "width": 42, "height": 29 }
			},
			"head": {
				"head": { "y": 6.11, "scaleX": 0.9, "scaleY": 0.9, "width": 61, "height": 55 }
			}
		}
	},
	{
		"name": "p02",
		"attachments": {
			"apparel-back": {
				"apparel-back": {
					"name": "p02/apparel-back",
					"color": "1a1a2bff",
					"x": 33.44,
					"y": 0.5,
					"rotation": 90,
					"width": 59,
					"height": 36
				}
			},
			"apparel-front": {
				"apparel-front": {
					"name": "p02/apparel-front",
					"color": "363652ff",
					"x": 25.49,
					"y": 0.5,
					"rotation": 90,
					"width": 63,
					"height": 37
				}
			},
			"body": {
				"body": { "name": "p02/body", "color": "272735ff", "x": 0.5, "y": 0.5, "width": 37, "height": 23 }
			},
			"head": {
				"head": { "name": "p02/head", "y": 3.48, "width": 50, "height": 43 }
			}
		}
	},
	{
		"name": "p04",
		"attachments": {
			"body": {
				"body": { "name": "p04/body", "x": 0.5, "y": 1.4, "width": 37, "height": 23 }
			},
			"head": {
				"head": { "name": "p04/head", "x": 0.5, "y": 5.31, "width": 45, "height": 42 }
			}
		}
	}
],
"animations": {
	"idle": {
		"bones": {
			"head": {
				"scale": [
					{ "curve": 0.25, "c3": 0.75 },
					{ "time": 0.1667, "x": 0.98, "y": 1.02, "curve": "stepped" },
					{ "time": 0.2667, "x": 0.98, "y": 1.02, "curve": 0.25, "c3": 0.75 },
					{ "time": 0.4333 }
				]
			},
			"apparel": {
				"translate": [
					{ "curve": 0.25, "c3": 0.75 },
					{ "time": 0.2667, "y": -1.31, "curve": 0.25, "c3": 0.75 },
					{ "time": 0.4333 }
				],
				"scale": [
					{ "curve": 0.25, "c3": 0.75 },
					{ "time": 0.2333, "x": 1.02, "curve": 0.25, "c3": 0.75 },
					{ "time": 0.4333 }
				]
			}
		}
	},
	"walk": {
		"bones": {
			"body": {
				"translate": [
					{ "curve": 0.25, "c3": 0.75 },
					{ "time": 0.1333, "y": 6, "curve": 0.25, "c3": 0.75 },
					{ "time": 0.5 }
				],
				"scale": [
					{ "x": 0.988, "y": 1.005, "curve": 0.25, "c3": 0.75 },
					{ "time": 0.0333, "curve": 0.25, "c3": 0.75 },
					{ "time": 0.1667, "x": 0.915, "y": 1.033, "curve": 0.25, "c3": 0.75 },
					{ "time": 0.5, "x": 0.988, "y": 1.005 }
				]
			},
			"apparel": {
				"translate": [
					{ "curve": 0.25, "c3": 0.75 },
					{ "time": 0.3, "y": -1.31, "curve": 0.25, "c3": 0.75 },
					{ "time": 0.5 }
				],
				"scale": [
					{ "curve": 0.25, "c3": 0.75 },
					{ "time": 0.2667, "x": 1.098, "curve": 0.25, "c3": 0.75 },
					{ "time": 0.5 }
				]
			},
			"head": {
				"scale": [
					{ "x": 0.988, "y": 1.005, "curve": 0.25, "c3": 0.75 },
					{ "time": 0.0333, "curve": 0.25, "c3": 0.75 },
					{ "time": 0.1667, "x": 0.95, "y": 1.02, "curve": 0.25, "c3": 0.75 },
					{ "time": 0.5, "x": 0.988, "y": 1.005 }
				]
			}
		}
	}
}
}