{
"skeleton": {
	"hash": "QMYEyU8btP1dFNNIE8cOzWwEE8M",
	"spine": "3.8.95",
	"x": -32,
	"y": -11.19,
	"width": 64,
	"height": 60.62,
	"images": "./images/",
	"audio": "C:/Mountain Walrus/freelancing/GTA Pandemic"
},
"bones": [
	{ "name": "root" },
	{ "name": "body", "parent": "root" },
	{ "name": "head", "parent": "body", "y": 9.65, "transform": "noScale" },
	{ "name": "apparel", "parent": "head", "length": 45, "rotation": -90, "y": 43.85, "transform": "noScale" },
	{ "name": "health-heart", "parent": "root", "y": 25.45 }
],
"slots": [
	{ "name": "apparel", "bone": "apparel", "attachment": "apparel" },
	{ "name": "body", "bone": "body", "attachment": "body" },
	{ "name": "head", "bone": "head", "attachment": "head" },
	{ "name": "heart-frame", "bone": "health-heart", "color": "ffffff00", "attachment": "heart-frame" },
	{ "name": "heart-full", "bone": "health-heart", "color": "ffffff00", "attachment": "heart-full" }
],
"skins": [
	{
		"name": "default",
		"attachments": {
			"heart-frame": {
				"heart-frame": { "scaleX": 0.2, "scaleY": 0.2, "width": 208, "height": 184 }
			},
			"heart-full": {
				"heart-full": { "scaleX": 0.2, "scaleY": 0.2, "width": 208, "height": 184 }
			}
		}
	},
	{
		"name": "char_01",
		"attachments": {
			"body": {
				"body": { "y": 3.5, "rotation": 0.52, "width": 42, "height": 29 }
			},
			"head": {
				"head": { "name": "head-front", "y": 10.28, "width": 64, "height": 59 }
			}
		}
	}
],
"animations": {
	"hurt": {
		"slots": {
			"heart-frame": {
				"color": [
					{ "time": 0.1667, "color": "ffffff00" },
					{ "time": 0.2667, "color": "ffffffff", "curve": "stepped" },
					{ "time": 0.9333, "color": "ffffffff", "curve": 0.793, "c4": 0.71 },
					{ "time": 1.1667, "color": "ffffff00" }
				]
			},
			"heart-full": {
				"color": [
					{ "time": 0.1667, "color": "ffffff00" },
					{ "time": 0.2667, "color": "ffffffd2", "curve": "stepped" },
					{ "time": 0.6667, "color": "ffffffd2" },
					{ "time": 0.7333, "color": "ffffff00" },
					{ "time": 0.8, "color": "ffffffd2" },
					{ "time": 0.8667, "color": "ffffff00" },
					{ "time": 0.9333, "color": "ffffffd2" },
					{ "time": 1, "color": "ffffff00" }
				]
			}
		},
		"bones": {
			"body": {
				"translate": [
					{ "curve": 0.25, "c3": 0.75 },
					{ "time": 0.1667, "y": 22.19, "curve": 0.25, "c3": 0.75 },
					{ "time": 0.5 }
				],
				"scale": [
					{ "x": 0.988, "y": 1.005, "curve": 0.25, "c3": 0.75 },
					{ "time": 0.0333, "curve": 0.25, "c3": 0.75 },
					{ "time": 0.2, "x": 0.915, "y": 1.033, "curve": 0.25, "c3": 0.75 },
					{ "time": 0.5, "x": 0.988, "y": 1.005 }
				]
			},
			"apparel": {
				"translate": [
					{ "curve": 0.25, "c3": 0.75 },
					{ "time": 0.3333, "y": -1.31, "curve": 0.25, "c3": 0.75 },
					{ "time": 0.5 }
				],
				"scale": [
					{ "curve": 0.25, "c3": 0.75 },
					{ "time": 0.3, "x": 1.098, "curve": 0.25, "c3": 0.75 },
					{ "time": 0.5 }
				]
			},
			"head": {
				"translate": [
					{},
					{ "time": 0.2333, "y": 5.01 },
					{ "time": 0.5 }
				],
				"scale": [
					{ "x": 0.988, "y": 1.005, "curve": 0.25, "c3": 0.75 },
					{ "time": 0.0333, "curve": 0.25, "c3": 0.75 },
					{ "time": 0.2, "y": 1.1, "curve": 0.25, "c3": 0.75 },
					{ "time": 0.5, "x": 0.988, "y": 1.005 }
				]
			},
			"health-heart": {
				"translate": [
					{ "time": 0.1667, "curve": 0.629, "c3": 0.75 },
					{ "time": 0.4333, "y": 63.15 },
					{ "time": 0.6667, "y": 52.77 }
				],
				"scale": [
					{ "time": 0.3333, "curve": 0.373, "c3": 0.617 },
					{ "time": 0.6667, "x": 1.417, "y": 1.417 }
				]
			}
		}
	},
	"idle": {
		"bones": {
			"head": {
				"scale": [
					{ "curve": 0.25, "c3": 0.75 },
					{ "time": 0.1667, "x": 0.98, "y": 1.02, "curve": "stepped" },
					{ "time": 0.2667, "x": 0.98, "y": 1.02, "curve": 0.25, "c3": 0.75 },
					{ "time": 0.4333 }
				]
			},
			"apparel": {
				"translate": [
					{ "curve": 0.25, "c3": 0.75 },
					{ "time": 0.2667, "y": -1.31, "curve": 0.25, "c3": 0.75 },
					{ "time": 0.4333 }
				],
				"scale": [
					{ "curve": 0.25, "c3": 0.75 },
					{ "time": 0.2333, "x": 1.02, "curve": 0.25, "c3": 0.75 },
					{ "time": 0.4333 }
				]
			}
		}
	},
	"walk": {
		"bones": {
			"body": {
				"translate": [
					{ "curve": 0.25, "c3": 0.75 },
					{ "time": 0.0771, "y": 6, "curve": 0.25, "c3": 0.75 },
					{ "time": 0.334 }
				],
				"scale": [
					{ "x": 0.988, "y": 1.005, "curve": 0.25, "c3": 0.75 },
					{ "time": 0.0257, "curve": 0.25, "c3": 0.75 },
					{ "time": 0.1028, "x": 0.915, "y": 1.033, "curve": 0.25, "c3": 0.75 },
					{ "time": 0.334, "x": 0.988, "y": 1.005 }
				]
			},
			"apparel": {
				"translate": [
					{ "curve": 0.25, "c3": 0.75 },
					{ "time": 0.2055, "y": -1.31, "curve": 0.25, "c3": 0.75 },
					{ "time": 0.334 }
				],
				"scale": [
					{ "curve": 0.25, "c3": 0.75 },
					{ "time": 0.1798, "x": 1.098, "curve": 0.25, "c3": 0.75 },
					{ "time": 0.334 }
				]
			},
			"head": {
				"scale": [
					{ "x": 0.988, "y": 1.005, "curve": 0.25, "c3": 0.75 },
					{ "time": 0.0257, "curve": 0.25, "c3": 0.75 },
					{ "time": 0.1028, "x": 0.95, "y": 1.02, "curve": 0.25, "c3": 0.75 },
					{ "time": 0.334, "x": 0.988, "y": 1.005 }
				]
			}
		}
	}
}
}